{
  "name": "lxd-puppet-module",
  "version": "1.0.0",
  "author": "Filip Dorosz",
  "summary": "",
  "license": "BSD-3-Clause",
  "source": "",
  "dependencies": [
     { "name": "puppetlabs/stdlib", "version_requirement": ">= 4.25.1" }
  ],
  "operatingsystem_support": [
    {
      "operatingsystem": "Ubuntu",
      "operatingsystemrelease": [
        "18.04",
        "16.04",
        "14.04"
      ]
    }
  ],
  "requirements": [
    {
      "name": "puppet",
      "version_requirement": ">= 4.10.0 < 7.0.0"
    }
  ],
  "pdk-version": "1.18.0",
  "template-url": "pdk-default#1.18.0",
  "template-ref": "tags/1.18.0-0-g095317c"
}
